{
  "users": [
    {
      "id": "0",
      "name": "person1",
      "tel": "89371450511"
    },
    {
      "id": "1",
      "name": "person2",
      "tel": "89273250511"
    },
    {
      "id": "2",
      "name": "person3",
      "tel": "89373250533"
    },
    {
      "id": "4",
      "name": "person4",
      "tel": "89275250516"
    },
    {
      "id": "5",
      "name": "person5",
      "tel": "89372154628"
    }
  ]
}